{
 	"dpi": 300,
    "width": 905,
    "height": 1280,
    "limits": {
      "topRight": {
        "x": 900,
        "y": 5
      },
      "bottomLeft": {
        "x": 20,
        "y": 1260
      }
    },
	"targets": [
      {
        "x1": 285,
        "y1": 546,
        "x2": 314,
        "y2": 574,
        "id": "01-A",
        "type": "rectangle",
        "tolerance": 97
      },
      {
        "x1": 325,
        "y1": 546,
        "x2": 345,
        "y2": 574,
        "id": "01-B",
        "type": "rectangle",
        "tolerance": 97
      },
      {
        "x1": 365,
        "y1": 546,
        "x2": 394,
        "y2": 574,
        "id": "01-C",
        "type": "rectangle",
        "tolerance": 97
      },
      {
        "x1": 400,
        "y1": 546,
        "x2": 432,
        "y2": 574,
        "id": "01-D",
        "type": "rectangle",
        "tolerance": 96
      },
      {
        "x1": 285,
        "y1": 587,
        "x2": 314,
        "y2": 612,
        "id": "02-A",
        "type": "rectangle",
        "tolerance": 97
      },
      {
        "x1": 325,
        "y1": 589,
        "x2": 345,
        "y2": 612,
        "id": "02-B",
        "type": "rectangle",
        "tolerance": 97
      },
      {
        "x1": 365,
        "y1": 588,
        "x2": 394,
        "y2": 614,
        "id": "02-C",
        "type": "rectangle",
        "tolerance": 97
      },
        {
        "x1": 400,
        "y1": 586,
        "x2": 432,
        "y2": 612,
        "id": "02-D",
        "type": "rectangle",
        "tolerance": 97
      },
            {
        "x1": 285,
        "y1": 629,
        "x2": 314,
        "y2": 652,
        "id": "03-A",
        "type": "rectangle",
        "tolerance": 97
      },
      {
        "x1": 325,
        "y1": 629,
        "x2": 345,
        "y2": 652,
        "id": "03-B",
        "type": "rectangle",
        "tolerance": 97
      },
      {
        "x1": 365,
        "y1": 629,
        "x2": 394,
        "y2": 652,
        "id": "03-C",
        "type": "rectangle",
        "tolerance": 97
      },
        {
        "x1": 400,
        "y1": 629,
        "x2": 435,
        "y2": 651,
        "id": "03-D",
        "type": "rectangle",
        "tolerance": 98
      },
                  {
        "x1": 285,
        "y1": 666,
        "x2": 314,
        "y2": 692,
        "id": "03-A",
        "type": "rectangle",
        "tolerance": 97
      },
      {
        "x1": 325,
        "y1": 666,
        "x2": 345,
        "y2": 692,
        "id": "03-B",
        "type": "rectangle",
        "tolerance": 97
      },
      {
        "x1": 365,
        "y1": 666,
        "x2": 394,
        "y2": 692,
        "id": "03-C",
        "type": "rectangle",
        "tolerance": 97
      },
        {
        "x1": 400,
        "y1": 666,
        "x2": 435,
        "y2": 692,
        "id": "03-D",
        "type": "rectangle",
        "tolerance": 98
      }
    ]	
}